情報処理演習 – index
…
今まで学んだ関数はデータフレームの値を個別に扱いました（主に列か行に対する処理を行ってきました）。

しかし、データフレームに含まれる値の平均や合計を計算したい場合には、さらに操作が必要です。

データの合計をcount()で数える

データの全体像を掴むために、まず数を数えることは有効です。

例えば、gapminderにいくつの国が含まれているかを数えます。

注意：count()のような集計関数の結果は、入力のデータと大きく異なります！

gapminder |> count(country)

# A tibble: 142 × 2
   country         n
   <chr>       <int>
 1 Afghanistan    12
 2 Albania        12
 3 Algeria        12
 4 Angola         12
 5 Argentina      12
 6 Australia      12
 7 Austria        12
 8 Bahrain        12
 9 Bangladesh     12
10 Belgium        12
# ℹ 132 more rows
…
グループ化

しかし、全体の平均や最小値だけでは役立ちません。

代わりに、国ごとの値が知りたい場合があります。

そのように「何かごと」に計算するには、グループ化を使用します。

グループを指定する関数はgroup_by()です：

gapminder |>
  group_by(country)

# A tibble: 1,704 × 6
# Groups:   country [142]
   country      year      pop continent life_exp gdp_percap
   <chr>       <dbl>    <dbl> <chr>        <dbl>      <dbl>
 1 Afghanistan  1952  8425333 Asia          28.8       779.
 2 Afghanistan  1957  9240934 Asia          30.3       821.
 3 Afghanistan  1962 10267083 Asia          32.0       853.
 4 Afghanistan  1967 11537966 Asia          34.0       836.
 5 Afghanistan  1972 13079460 Asia          36.1       740.
 6 Afghanistan  1977 14880372 Asia          38.4       786.
 7 Afghanistan  1982 12881816 Asia          39.9       978.
 8 Afghanistan  1987 13867957 Asia          40.8       852.
 9 Afghanistan  1992 16317921 Asia          41.7       649.
10 Afghanistan  1997 22227415 Asia          41.8       635.
# ℹ 1,694 more rows
…
ただし、グループ化だけではまだ計算が行われていません。

グループ化の次にsummarize()を用いて計算します：

gapminder |>
  group_by(country) |>
  summarize(
    mean_life_exp = mean(life_exp)
  )

# A tibble: 142 × 2
   country     mean_life_exp
   <chr>               <dbl>
 1 Afghanistan          37.5
 2 Albania              68.4
 3 Algeria              59.0
 4 Angola               37.9
 5 Argentina            69.1
 6 Australia            74.7
 7 Austria              73.1
 8 Bahrain              65.6
 9 Bangladesh           49.8
10 Belgium              73.6
# ℹ 132 more rows
…
同時に複数の計算も可能です。

各新しい列をカンマで区切ります

例えば、平均と標準偏差：

gapminder |>
  group_by(country) |>
  summarize(
    mean_life_exp = mean(life_exp),
    sd_life_exp = sd(life_exp)
  )

# A tibble: 142 × 3
  country     mean_life_exp sd_life_exp
  <chr>               <dbl>       <dbl>
1 Afghanistan          37.5        5.10
2 Albania              68.4        6.32
3 Algeria              59.0       10.3 
4 Angola               37.9        4.01
5 Argentina            69.1        4.19
6 Australia            74.7        4.15
# ℹ 136 more rows
…
パイプライン

パイプとコマンドを組み合わせることで、複雑なデータ処理を簡単に行うことができます。

例えば、アジアの国だけに絞ってから、国ごとの計算も可能です：

gapminder |>
  filter(continent == "Asia") |>
  group_by(country) |>
  summarize(
    mean_life_exp = mean(life_exp),
    sd_life_exp = sd(life_exp)
  )

# A tibble: 33 × 3
   country         mean_life_exp sd_life_exp
   <chr>                   <dbl>       <dbl>
 1 Afghanistan              37.5        5.10
 2 Bahrain                  65.6        8.57
 3 Bangladesh               49.8        9.03
 4 Cambodia                 47.9        8.93
 5 China                    61.8       10.3 
 6 Hong Kong China          73.5        6.69
 7 India                    53.2        9.26
 8 Indonesia                54.3       11.5 
 9 Iran                     58.6        8.98
10 Iraq                     56.6        5.74
# ℹ 23 more rows
…
